Statistical workshop with R - Inferential statistics
…
AlcoholDay
Average number of drinks consumed on days that participant drank alcoholic beverages. Reported for participants aged 18 years or older.

AlcoholYear
Estimated number of days over the past year that participant drank alcoholic beverages. Reported for participants aged 18 years or older.

SmokingStatus
Smoking status: Current Former or Never.

import data to tibbles

nh <- read_csv(file="nhanes.csv")
nh

# A tibble: 5,000 × 32
      id Gender   Age Race    Education MaritalStatus RelationshipStatus Insured
   <dbl> <chr>  <dbl> <chr>   <chr>     <chr>         <chr>              <chr>  
 1 62163 male      14 Asian   <NA>      <NA>          <NA>               Yes    
 2 62172 female    43 Black   High Sch… NeverMarried  Single             Yes    
 3 62174 male      80 White   College … Married       Committed          Yes    
 4 62174 male      80 White   College … Married       Committed          Yes    
 5 62175 male       5 White   <NA>      <NA>          <NA>               Yes    
 6 62176 female    34 White   College … Married       Committed          Yes    
 7 62178 male      80 White   High Sch… Widowed       Single             Yes    
 8 62180 male      35 White   College … Married       Committed          Yes    
 9 62186 female    17 Black   <NA>      <NA>          <NA>               Yes    
10 62190 female    15 Mexican <NA>      <NA>          <NA>               Yes    
# ℹ 4,990 more rows
# ℹ 24 more variables: Income <dbl>, Poverty <dbl>, HomeRooms <dbl>,
#   HomeOwn <chr>, Work <chr>, Weight <dbl>, Height <dbl>, BMI <dbl>,
#   Pulse <dbl>, BPSys <dbl>, BPDia <dbl>, Testosterone <dbl>, HDLChol <dbl>,
#   TotChol <dbl>, Diabetes <chr>, DiabetesAge <dbl>, nPregnancies <dbl>,
#   nBabies <dbl>, SleepHrsNight <dbl>, PhysActive <chr>, PhysActiveDays <dbl>,
#   AlcoholDay <dbl>, AlcoholYear <dbl>, SmokingStatus <chr>
…
nhaov <- nh %>% 
  filter(Race!="Other" & !is.na(Diabetes) & !is.na(BMI)) %>% 
  mutate(
    Race = factor(
      Race, 
      labels = c("Asian", "Black", "White", "Mexican", "Hispanic")
    ),
    Diabetes = factor(
      Diabetes, 
      labels = c("Yes", "No")
    )
  )
nhaov

# A tibble: 4,681 × 32
      id Gender   Age Race    Education MaritalStatus RelationshipStatus Insured
   <dbl> <chr>  <dbl> <fct>   <chr>     <chr>         <chr>              <chr>  
 1 62163 male      14 Asian   <NA>      <NA>          <NA>               Yes    
 2 62172 female    43 Black   High Sch… NeverMarried  Single             Yes    
 3 62174 male      80 Hispan… College … Married       Committed          Yes    
 4 62174 male      80 Hispan… College … Married       Committed          Yes    
 5 62175 male       5 Hispan… <NA>      <NA>          <NA>               Yes    
 6 62176 female    34 Hispan… College … Married       Committed          Yes    
 7 62178 male      80 Hispan… High Sch… Widowed       Single             Yes    
 8 62180 male      35 Hispan… College … Married       Committed          Yes    
 9 62186 female    17 Black   <NA>      <NA>          <NA>               Yes    
10 62190 female    15 Mexican <NA>      <NA>          <NA>               Yes    
# ℹ 4,671 more rows
# ℹ 24 more variables: Income <dbl>, Poverty <dbl>, HomeRooms <dbl>,
#   HomeOwn <chr>, Work <chr>, Weight <dbl>, Height <dbl>, BMI <dbl>,
#   Pulse <dbl>, BPSys <dbl>, BPDia <dbl>, Testosterone <dbl>, HDLChol <dbl>,
#   TotChol <dbl>, Diabetes <fct>, DiabetesAge <dbl>, nPregnancies <dbl>,
#   nBabies <dbl>, SleepHrsNight <dbl>, PhysActive <chr>, PhysActiveDays <dbl>,
#   AlcoholDay <dbl>, AlcoholYear <dbl>, SmokingStatus <chr>
…
